corefft 32768 Demo/.Xil/Vivado-10536-DESKTOP-U2FBRCJ/hw_ila_data_1/zip_work/waveform.vcd
$date
        2019-Mar-19 09:59:38
$end
$version
        Vivado v2018.2 (64-bit)
$end
$timescale
        1ps
$end
$scope module dut $end
$var reg 1 " FFT/config_tvalid $end
$var reg 1 # FFT/config_tready $end
$var reg 1 $ FFT/config_tdata $end
$var reg 1 % FFT/<const0>_1 $end
$var reg 1 & FFT/<const0>_2 $end
$var reg 1 ' FFT/<const0>_3 $end
$var reg 1 ( FFT/<const0>_4 $end
$var reg 1 ) FFT/<const0>_5 $end
$var reg 1 * FFT/<const0>_6 $end
$var reg 1 + FFT/<const0>_7 $end
$var reg 1 , FFT/<const0>_8 $end
$var reg 1 - FFT/<const0>_9 $end
$var reg 1 . FFT/<const0>_10 $end
$var reg 1 / FFT/<const0>_11 $end
$var reg 1 0 FFT/<const0>_12 $end
$var reg 1 1 FFT/<const0>_13 $end
$var reg 1 2 FFT/<const0>_14 $end
$var reg 1 3 FFT/<const0> $end
$var reg 1 4 FFT/data_tvalid $end
$var reg 1 5 FFT/data_tready $end
$var reg 32 6 FFT/data_tdata [31:0] $end
$var reg 1 V FFT/save_ok $end
$var reg 32 W FFT/m_data_tdata [31:0] $end
$var reg 1 w FFT/m_data_tvalid $end
$var reg 1 x FFT/m_data_tready $end
$var reg 1 y _TRIGGER $end
$var reg 1 z _WINDOW $end
$var reg 1 { _GAP $end
$upscope $end
$enddefinitions $end
#0
$dumpvars
0"
1#
1$
0%
0&
0'
0(
0)
0*
0+
0,
0-
0.
0/
00
01
02
03
04
15
b0 6
1V
b0 W
0w
0x
1y
1z
0{
$end
#1
0V
#4
14
b1101110111001011 6
#5
04
#8
14
b1111010010000010 6
#9
04
#12
14
b1011100001010101 6
#13
04
#16
14
b100001101101010 6
#17
04
#20
14
b1011100010000 6
#21
04
#24
14
b1110100110100011 6
#25
04
#28
14
b10011011001000 6
#29
04
#32
14
b1100010011001000 6
#33
04
#36
14
b1111111101010101 6
#37
04
#40
14
b1101110001 6
#41
04
#44
14
b1100101101110 6
#45
04
#48
14
b1010100000111 6
#49
04
#52
14
b1110001110100001 6
#53
04
#56
14
b1111000000010110 6
#57
04
#60
14
b1110000110011000 6
#61
04
#64
14
b1111100110101011 6
#65
04
#68
14
b1000010011111 6
#69
04
#72
14
b1111001101010 6
#73
04
#76
14
b1110101101001010 6
#77
04
#80
14
b111010111011 6
#81
04
#84
14
b1110001010001101 6
#85
04
#88
14
b1101110111010010 6
#89
04
#92
14
b1111101000001001 6
#93
04
#96
14
b10101000100011 6
#97
04
#100
14
b1110011100010001 6
#101
04
#104
14
b1011100010101 6
#105
04
#108
14
b111001100010 6
#109
04
#112
14
b11110011001000 6
#113
04
#116
14
b1111000000001111 6
#117
04
#120
14
b11010000010 6
#121
04
#124
14
b100001000110 6
#125
04
#128
14
b1000000001010 6
#129
04
#304
b1 W
1w
#306
1x
#307
b10000111010000000110100011 W
#308
b10010010001111110100111011 W
#309
b10101111111101010111001 W
#310
b11111011101110101111111011101000 W
#311
b110000111011111100110100100 W
#312
b11010100110000001100111110 W
#313
b11100111000000001000110111 W
#314
b101100010001111111001100000 W
#315
b1011001011111110101011111 W
#316
b11111101100010100000010110000110 W
#317
b11111111010110010000001010001011 W
#318
b11110111110001100000000110001111 W
#319
b11111010000101101111110011111011 W
#320
b1001111101111101011111110 W
#321
b110011110111111111000100100 W
#322
b1111011110000001 W
#323
b11111001100001001111111000100101 W
#324
b11111110110000101111101011111110 W
#325
b101111010011111110011111100 W
#326
b1000001110010000000110001111 W
#327
b101001100000001010001100 W
#328
b10011101000000010110000110 W
#329
b11111110100110011111110101100000 W
#330
b11111010011101111111111001100000 W
#331
b11111100011000110000001000111000 W
#332
b11111100101010110000001100111110 W
#333
b11111001111000101111100110100101 W
#334
b100010001011111111011101000 W
#335
b11111111101001101111101010111010 W
#336
b11111101101101011111110100111011 W
#337
b11111101111000000000000110100100 W
#338
b1111011110000001 W
0w
0x
#339
1x
#371
0x
