corefft 32768 Demo/.Xil/Vivado-45764-DESKTOP-U2FBRCJ/hw_ila_data_2/zip_work/waveform.vcd
$date
        2019-Apr-04 03:33:50
$end
$version
        Vivado v2018.2 (64-bit)
$end
$timescale
        1ps
$end
$scope module dut $end
$var reg 5 " dir_frequency [4:0] $end
$var reg 5 ' dir_out_uart [4:0] $end
$var reg 32 , dato_frequency [31:0] $end
$var reg 32 L dato_uart_out [31:0] $end
$var reg 1 l save_ok_frequency $end
$var reg 1 m _TRIGGER $end
$var reg 1 n _WINDOW $end
$var reg 1 o _GAP $end
$upscope $end
$enddefinitions $end
#0
$dumpvars
b1 "
b0 '
b11001110010 ,
b0 L
0l
1m
1n
0o
$end
#2
b11001110010 L
#3
b10 "
b11111011010000111111100111000111 ,
#6
b11 "
b11110110011111111100011011 ,
#9
b100 "
b11110111101100001111110100100111 ,
#12
b101 "
b11111011111101011111110101011001 ,
#15
b110 "
b11111100010000000000001001010000 ,
#18
b111 "
b11111110010100010000000011001001 ,
#21
b1000 "
b11111111011110000000000000001000 ,
#24
b1001 "
b11111101101010001111111000010001 ,
#27
b1010 "
b1010110000000010101010 ,
#30
b1011 "
b11111111001111010000101101000101 ,
#33
b1100 "
b101010011110000000011001000 ,
#36
b1101 "
b10001000000000011100000000 ,
#39
b1110 "
b11111111011100101111111100100010 ,
#42
b1111 "
b100010010101111110100001010 ,
#45
b10000 "
b1110001110 ,
#48
b10001 "
b11111011101101011111110100001011 ,
#51
b10010 "
b100011001111111100100010 ,
#54
b10011 "
b11111101110111110000011100000000 ,
#57
b10100 "
b11111010101011110000000011001001 ,
#60
b10101 "
b110000100000101101000101 ,
#63
b10110 "
b11111111110101000000000010101011 ,
#66
b10111 "
b10010101101111111000010001 ,
#69
b11000 "
b100001110000000000001000 ,
#72
b11001 "
b1101011010000000011001001 ,
#75
b11010 "
b11101111100000001001010001 ,
#78
b11011 "
b100000010011111110101011010 ,
#81
b11100 "
b1000010011111111110100101000 ,
#84
b11101 "
b11111100001001011111111100011100 ,
#87
b11110 "
b100101110111111100111001000 ,
#90
b11111 "
b1010010000010011000111 ,
#93
b0 "
#96
b1010010000010011000111 L
