corefft 1024 Sin ILA/.Xil/Vivado-45764-DESKTOP-U2FBRCJ/hw_ila_data_1/zip_work/waveform.vcd
$date
        2019-Apr-04 03:33:48
$end
$version
        Vivado v2018.2 (64-bit)
$end
$timescale
        1ps
$end
$scope module dut $end
$var reg 1 " FFT/config_tvalid $end
$var reg 1 # FFT/config_tready $end
$var reg 1 $ FFT/config_tdata $end
$var reg 1 % FFT/<const0>_1 $end
$var reg 1 & FFT/<const0>_2 $end
$var reg 1 ' FFT/<const0>_3 $end
$var reg 1 ( FFT/<const0>_4 $end
$var reg 1 ) FFT/<const0>_5 $end
$var reg 1 * FFT/<const0>_6 $end
$var reg 1 + FFT/<const0>_7 $end
$var reg 1 , FFT/<const0>_8 $end
$var reg 1 - FFT/<const0>_9 $end
$var reg 1 . FFT/<const0>_10 $end
$var reg 1 / FFT/<const0>_11 $end
$var reg 1 0 FFT/<const0>_12 $end
$var reg 1 1 FFT/<const0>_13 $end
$var reg 1 2 FFT/<const0>_14 $end
$var reg 1 3 FFT/<const0> $end
$var reg 1 4 FFT/data_tvalid $end
$var reg 1 5 FFT/data_tready $end
$var reg 32 6 FFT/data_tdata [31:0] $end
$var reg 1 V FFT/save_ok $end
$var reg 32 W FFT/m_data_tdata [31:0] $end
$var reg 1 w FFT/m_data_tvalid $end
$var reg 1 x FFT/m_data_tready $end
$var reg 1 y _TRIGGER $end
$var reg 1 z _WINDOW $end
$var reg 1 { _GAP $end
$upscope $end
$enddefinitions $end
#0
$dumpvars
0"
1#
1$
0%
0&
0'
0(
0)
0*
0+
0,
0-
0.
0/
00
01
02
03
04
15
b0 6
1V
b0 W
0w
0x
1y
1z
0{
$end
#1
0V
#4
14
b1110010011101 6
#5
04
#8
14
b1011101 6
#9
04
#12
14
b10101110111110 6
#13
04
#16
14
b1111000110111 6
#17
04
#20
14
b1111101100000011 6
#21
04
#24
14
b1110000001101 6
#25
04
#28
14
b1010100100001 6
#29
04
#32
14
b10101010 6
#33
04
#36
14
b10001001100110 6
#37
04
#40
14
b1011101010110 6
#41
04
#44
14
b10011011100100 6
#45
04
#48
14
b1110011000000001 6
#49
04
#52
14
b10000110110011 6
#53
04
#56
14
b1011100101001100 6
#57
04
#60
14
b1101011100111010 6
#61
04
#64
14
b1111100100100110 6
#65
04
#68
14
b1101111011101011 6
#69
04
#72
14
b100111010011 6
#73
04
#76
14
b1100100001111 6
#77
04
#80
14
b1111011111111011 6
#81
04
#84
14
b10001001110000 6
#85
04
#88
14
b100111111011 6
#89
04
#92
14
b1111101110100011 6
#93
04
#96
14
b1011011010010 6
#97
04
#100
14
b1111100111101011 6
#101
04
#104
14
b1110101010111010 6
#105
04
#108
14
b10100100010001 6
#109
04
#112
14
b11000010100000 6
#113
04
#116
14
b1111100110011001 6
#117
04
#120
14
b11010000001010 6
#121
04
#124
14
b1101001011000110 6
#125
04
#128
14
b1101000100110111 6
#129
04
#304
b11001110010 W
1w
#306
1x
#307
b11111111110101000000010011000110 W
#308
b11111011010000111111100111000111 W
0x
#310
1x
#311
b11110110011111111100011011 W
0x
#313
1x
#314
b11110111101100001111110100100111 W
0x
#316
1x
#317
b11111011111101011111110101011001 W
0x
#319
1x
#320
b11111100010000000000001001010000 W
0x
#322
1x
#323
b11111110010100010000000011001001 W
0x
#325
1x
#326
b11111111011110000000000000001000 W
0x
#328
1x
#329
b11111101101010001111111000010001 W
0x
#331
1x
#332
b1010110000000010101010 W
0x
#334
1x
#335
b11111111001111010000101101000101 W
0x
#337
1x
#338
b101010011110000000011001000 W
0x
#340
1x
#341
b10001000000000011100000000 W
0x
#343
1x
#344
b11111111011100101111111100100010 W
0x
#346
1x
#347
b100010010101111110100001010 W
0x
#349
1x
#350
b1110001110 W
0x
#352
1x
#353
b11111011101101011111110100001011 W
0x
#355
1x
#356
b100011001111111100100010 W
0x
#358
1x
#359
b11111101110111110000011100000000 W
0x
#361
1x
#362
b11111010101011110000000011001001 W
0x
#364
1x
#365
b110000100000101101000101 W
0x
#367
1x
#368
b11111111110101000000000010101011 W
0x
#370
1x
#371
b10010101101111111000010001 W
0x
#373
1x
#374
b100001110000000000001000 W
0x
#376
1x
#377
b1101011010000000011001001 W
0x
#379
1x
#380
b11101111100000001001010001 W
0x
#382
1x
#383
b100000010011111110101011010 W
0x
#385
1x
#386
b1000010011111111110100101000 W
0x
#388
1x
#389
b11111100001001011111111100011100 W
0x
#391
1x
#392
b100101110111111100111001000 W
0x
#394
1x
#395
b1010010000010011000111 W
0x
#397
1x
#398
b1110001110 W
0w
0x
