corefft 32768 Demo/.Xil/Vivado-22324-DESKTOP-U2FBRCJ/hw_ila_data_1/zip_work/waveform.vcd
$date
        2019-Mar-13 00:24:58
$end
$version
        Vivado v2018.2 (64-bit)
$end
$timescale
        1ps
$end
$scope module dut $end
$var reg 1 " FFT/config_tvalid $end
$var reg 1 # FFT/config_tready $end
$var reg 1 $ FFT/config_tdata $end
$var reg 1 % FFT/<const0>_1 $end
$var reg 1 & FFT/<const0>_2 $end
$var reg 1 ' FFT/<const0>_3 $end
$var reg 1 ( FFT/<const0>_4 $end
$var reg 1 ) FFT/<const0>_5 $end
$var reg 1 * FFT/<const0>_6 $end
$var reg 1 + FFT/<const0>_7 $end
$var reg 1 , FFT/<const0>_8 $end
$var reg 1 - FFT/<const0>_9 $end
$var reg 1 . FFT/<const0>_10 $end
$var reg 1 / FFT/<const0>_11 $end
$var reg 1 0 FFT/<const0>_12 $end
$var reg 1 1 FFT/<const0>_13 $end
$var reg 1 2 FFT/<const0>_14 $end
$var reg 1 3 FFT/<const0> $end
$var reg 1 4 FFT/data_tvalid $end
$var reg 1 5 FFT/data_tready $end
$var reg 32 6 FFT/data_tdata [31:0] $end
$var reg 1 V FFT/save_ok $end
$var reg 32 W FFT/m_data_tdata [31:0] $end
$var reg 1 w FFT/m_data_tvalid $end
$var reg 1 x FFT/m_data_tready $end
$var reg 1 y _TRIGGER $end
$var reg 1 z _WINDOW $end
$var reg 1 { _GAP $end
$upscope $end
$enddefinitions $end
#0
$dumpvars
0"
1#
1$
0%
0&
0'
0(
0)
0*
0+
0,
0-
0.
0/
00
01
02
03
04
15
b0 6
1V
b0 W
0w
0x
1y
1z
0{
$end
#1
0V
#6
14
#7
04
#12
14
b101011110011 6
#13
04
#18
14
b111111110111 6
#19
04
#24
14
b110001010100 6
#25
04
#30
14
b1000000001 6
#31
04
#36
14
b1111011010011000 6
#37
04
#42
14
b1111000001001000 6
#43
04
#48
14
b1111001001111101 6
#49
04
#54
14
b1111110000000101 6
#55
04
#60
14
b11110110101 6
#61
04
#66
14
b111100110111 6
#67
04
#72
14
b111001111010 6
#73
04
#78
14
b10111100011 6
#79
04
#84
14
b1111101000011100 6
#85
04
#90
14
b1111000110000101 6
#91
04
#96
14
b1111000011001000 6
#97
04
#102
14
b1111100001001010 6
#103
04
#108
14
b1111111010 6
#109
04
#114
14
b110110000010 6
#115
04
#120
14
b111110110111 6
#121
04
#126
14
b100101100111 6
#127
04
#132
14
b1111110111111110 6
#133
04
#138
14
b1111001110101011 6
#139
04
#144
14
b1111000000001000 6
#145
04
#150
14
b1111010100001100 6
#151
04
#156
14
b1111111111111111 6
#157
04
#162
14
b101011110011 6
#163
04
#168
14
b111111110111 6
#169
04
#174
14
b110001010100 6
#175
04
#180
14
b1000000001 6
#181
04
#186
14
b1111011010011000 6
#187
04
#192
14
b1111000001001000 6
#193
04
#368
b1111111 W
1w
#370
1x
#371
b1010010000000010000101 W
#372
b11010010000000010011101 W
#373
b1001001010000000011111011 W
#374
b11111001001011001111110010010011 W
#375
b11111110111111011111111110111111 W
#376
b11111111011100001111111111111011 W
#377
b11111111100111000000000000001111 W
#378
b11111111101101100000000000011010 W
#379
b11111111110001100000000000011111 W
#380
b11111111110100110000000000100011 W
#381
b11111111110111010000000000100101 W
#382
b11111111111001010000000000100111 W
#383
b11111111111011000000000000101000 W
#384
b11111111111100110000000000101001 W
#385
b11111111111110010000000000101001 W
#386
b101010 W
#387
b1100000000000101010 W
#388
b11000000000000101001 W
#389
b100100000000000101001 W
#390
b110100000000000100111 W
#391
b1000100000000000100110 W
#392
b1011010000000000100011 W
#393
b1110010000000000011111 W
#394
b10010100000000000011010 W
#395
b11000100000000000001111 W
#396
b100011111111111111111011 W
#397
b1000000011111111111000000 W
#398
b110110100111111110010010011 W
#399
b11111110110110100000000011111100 W
#400
b11111111100101000000000010011110 W
#401
b11111111110101000000000010000110 W
#402
b101010 W
0w
0x
#403
1x
#435
0x
